{
    "photos":[
        {"id":"1","img_src":"https://res.cloudinary.com/bomzie/image/upload/v1560412295/conciergerie/img/STAGES_VACANCES_1_fd1fez.jpg","img_alt":"Photo Stage"},
        {"id":"2","img_src":"https://res.cloudinary.com/bomzie/image/upload/v1560412295/conciergerie/img/STAGES_VACANCES_3_outt8e.jpg","img_alt":"Photo Stage"},
        {"id":"3","img_src":"https://res.cloudinary.com/bomzie/image/upload/v1560412295/conciergerie/img/STAGES_VACANCES_2_k5pknj.jpg","img_alt":"Photo Stage"},
        {"id":"4","img_src":"https://res.cloudinary.com/bomzie/image/upload/v1560412295/conciergerie/img/STAGES_VACANCES_4_pj2lc0.jpg","img_alt":"Photo Stage"}
    ]
}